#FIG 3.2
Portrait
Flush left
Inches
Letter
100.00
Single
0
1200 2
0 32 #fefefe
0 33 #f2f2f2
# polyline
2 1 0 0 32 32 999 0 20 4.0 0 0 0 0 0 5
	466 12566 466 6429 9916 6429 9916 12566 466 12566
# polyline
2 1 0 0 7 7 997 0 20 4.0 0 0 0 0 0 7
	466 12566 474 12558 474 6437 9908 6437 9916 6429 
	466 6429 466 12566
# polyline
2 1 0 0 32 32 995 0 20 4.0 0 0 0 0 0 7
	466 12566 474 12558 9908 12558 9908 6437 9916 6429 
	9916 12566 466 12566
# polyline
2 1 0 0 32 32 993 0 20 4.0 0 0 0 0 0 5
	1412 11954 1412 7045 8970 7045 8970 11954 1412 11954
# polyline
2 1 0 0 7 7 991 0 20 4.0 0 0 0 0 0 7
	1412 11954 1416 11950 1416 7050 8966 7050 8970 7045 
	1412 7045 1412 11954
# polyline
2 1 0 0 32 32 989 0 20 4.0 0 0 0 0 0 7
	1412 11954 1416 11950 8966 11950 8966 7050 8970 7045 
	8970 11954 1412 11954
# polyline
2 1 0 1 0 0 987 0 -1 4.0 0 0 0 0 0 5
	1412 11954 1412 7045 8970 7045 8970 11954 1412 11954
# polyline
2 1 0 0 32 32 985 0 20 4.0 0 0 0 0 0 5
	1412 11954 1412 7045 8970 7045 8970 11954 1412 11954
# polyline
2 1 0 0 7 7 983 0 20 4.0 0 0 0 0 0 7
	1412 11954 1416 11950 1416 7050 8966 7050 8970 7045 
	1412 7045 1412 11954
# polyline
2 1 0 0 32 32 981 0 20 4.0 0 0 0 0 0 7
	1412 11954 1416 11950 8966 11950 8966 7050 8970 7045 
	8970 11954 1412 11954
# polyline
2 1 0 1 0 0 979 0 -1 4.0 0 0 0 0 0 5
	1412 11954 1412 7045 8970 7045 8970 11954 1412 11954
# polyline
2 1 0 1 0 0 977 0 -1 4.0 0 0 0 0 0 486
	1412 8420 1441 8420 1441 7962 1470 7962 1470 7987 
	1499 7987 1499 7404 1533 7404 1533 7862 1562 7862 
	1562 7279 1591 7279 1591 7912 1620 7912 1620 8320 
	1654 8320 1654 8166 1683 8166 1683 7937 1712 7937 
	1712 8650 1741 8650 1741 8116 1774 8116 1774 8725 
	1804 8725 1804 8241 1833 8241 1833 7787 1862 7787 
	1862 8650 1891 8650 1891 7862 1924 7862 1924 7733 
	1954 7733 1954 7912 1983 7912 1983 8420 2012 8420 
	2012 8016 2045 8016 2045 8575 2074 8575 2074 8241 
	2104 8241 2104 8804 2133 8804 2133 7912 2162 7912 
	2162 8750 2195 8750 2195 8520 2224 8520 2224 8954 
	2254 8954 2254 8829 2283 8829 2283 8520 2316 8520 
	2316 8675 2345 8675 2345 8700 2374 8700 2374 8775 
	2404 8775 2404 9083 2437 9083 2437 8979 2466 8979 
	2466 8600 2495 8600 2495 8804 2524 8804 2524 8470 
	2554 8470 2554 8775 2587 8775 2587 9029 2616 9029 
	2616 9387 2645 9387 2645 8979 2674 8979 2674 8879 
	2737 8879 2737 9133 2795 9133 2795 8954 2824 8954 
	2824 9004 2858 9004 2858 9337 2887 9337 2887 8804 
	2916 8804 2916 9312 2945 9312 2945 9387 2979 9387 
	2979 9412 3008 9412 3008 9362 3037 9362 3037 8954 
	3066 8954 3066 9283 3099 9283 3099 9362 3129 9362 
	3129 9312 3158 9312 3158 9816 3187 9816 3187 9616 
	3216 9616 3216 9741 3249 9741 3249 9258 3279 9258 
	3279 9312 3337 9312 3337 9283 3370 9283 3370 9895 
	3399 9895 3399 9845 3429 9845 3429 9158 3458 9158 
	3458 9845 3487 9845 3487 9716 3520 9716 3520 9312 
	3549 9312 3549 9562 3579 9562 3579 9412 3608 9412 
	3608 9945 3641 9945 3641 9666 3670 9666 3670 9562 
	3699 9562 3699 10150 3729 10150 3729 9716 3762 9716 
	3762 9616 3791 9616 3791 10454 3820 10454 3820 9970 
	3849 9970 3849 10020 3879 10020 3879 9591 3912 9591 
	3912 10150 3941 10150 3941 10045 3970 10045 3970 10020 
	3999 10020 3999 10125 4033 10125 4033 10070 4062 10070 
	4062 10325 4091 10325 4091 9766 4120 9766 4120 9845 
	4149 9845 4149 10020 4183 10020 4183 9995 4212 9995 
	4212 9895 4241 9895 4241 9666 4270 9666 4270 9258 
	4304 9258 4304 7937 4333 7937 4333 8725 4362 8725 
	4362 9562 4391 9562 4391 9945 4424 9945 4424 9666 
	4454 9666 4454 10250 4483 10250 4483 10200 4512 10200 
	4512 10275 4541 10275 4541 10250 4574 10250 4574 10658 
	4604 10658 4604 10633 4633 10633 4633 10658 4662 10658 
	4662 10454 4695 10454 4695 10379 4724 10379 4724 10250 
	4783 10250 4783 10579 4816 10579 4816 10404 4845 10404 
	4845 10504 4904 10504 4904 10354 4933 10354 4933 10379 
	4995 10379 4995 10529 5024 10529 5024 10275 5054 10275 
	5054 10454 5087 10454 5087 10354 5116 10354 5116 10225 
	5145 10225 5145 10200 5174 10200 5174 10579 5204 10579 
	5204 10325 5237 10325 5237 10554 5266 10554 5266 10733 
	5295 10733 5295 10783 5324 10783 5324 10579 5358 10579 
	5358 10683 5387 10683 5387 10479 5416 10479 5416 10579 
	5445 10579 5445 10733 5479 10733 5479 10783 5508 10783 
	5508 10683 5537 10683 5537 10429 5566 10429 5566 10479 
	5595 10479 5595 10783 5629 10783 5629 10833 5658 10833 
	5658 10225 5687 10225 5687 10783 5716 10783 5716 10608 
	5749 10608 5749 10554 5779 10554 5779 10275 5808 10275 
	5808 10404 5837 10404 5837 10987 5866 10987 5866 10504 
	5899 10504 5899 10175 5929 10175 5929 10454 5958 10454 
	5958 10554 5987 10554 5987 10937 6020 10937 6020 10962 
	6049 10962 6049 10937 6079 10937 6079 10633 6108 10633 
	6108 10887 6141 10887 6141 11062 6170 11062 6170 10833 
	6199 10833 6199 11062 6229 11062 6229 10962 6258 10962 
	6258 10683 6291 10683 6291 10808 6320 10808 6320 11062 
	6379 11062 6379 11087 6412 11087 6412 10887 6441 10887 
	6441 11037 6470 11037 6470 10937 6499 10937 6499 10808 
	6529 10808 6529 11166 6562 11166 6562 11112 6591 11112 
	6591 10808 6620 10808 6620 10708 6649 10708 6649 11037 
	6683 11037 6683 10887 6712 10887 6712 10783 6741 10783 
	6741 11037 6770 11037 6770 11395 6804 11395 6804 10862 
	6833 10862 6833 11112 6862 11112 6862 11191 6891 11191 
	6891 10887 6920 10887 6920 10962 6954 10962 6954 11141 
	6983 11141 6983 10937 7012 10937 7012 11037 7041 11037 
	7041 10862 7074 10862 7074 10887 7104 10887 7104 11087 
	7133 11087 7133 11166 7162 11166 7162 11037 7195 11037 
	7195 11395 7224 11395 7224 10937 7254 10937 7254 11012 
	7283 11012 7283 10733 7312 10733 7312 11291 7345 11291 
	7345 11266 7374 11266 7374 11037 7404 11037 7404 11266 
	7433 11266 7433 11012 7466 11012 7466 10987 7495 10987 
	7495 11191 7524 11191 7524 11062 7554 11062 7554 10833 
	7583 10833 7583 11291 7616 11291 7616 11037 7645 11037 
	7645 11166 7674 11166 7674 11141 7704 11141 7704 11266 
	7737 11266 7737 11216 7766 11216 7766 10862 7795 10862 
	7795 10962 7824 10962 7824 11291 7858 11291 7858 11241 
	7887 11241 7887 11141 7916 11141 7916 11062 7945 11062 
	7945 11291 7974 11291 7974 11316 8008 11316 8008 11495 
	8037 11495 8037 11445 8066 11445 8066 11141 8095 11141 
	8095 11341 8129 11341 8129 11241 8158 11241 8158 11316 
	8187 11316 8187 11012 8245 11012 8245 11420 8279 11420 
	8279 11291 8308 11291 8308 11191 8337 11191 8337 11112 
	8366 11112 8366 11166 8399 11166 8399 11241 8429 11241 
	8429 11112 8458 11112 8458 11141 8487 11141 8487 11291 
	8520 11291 8520 11341 8549 11341 8549 11241 8579 11241 
	8579 11266 8608 11266 8608 11470 8637 11470 8637 11395 
	8670 11395 8670 11291 8699 11291 8699 11112 8729 11112 
	8729 11141 8758 11141 8758 11112 8791 11112 8791 10937 
	8820 10937 8820 11266 8849 11266 8849 11216 8879 11216 
	8879 11291 8908 11291 8908 11166 8941 11166 8941 11216 
	8970 11216
# polyline
2 1 0 0 33 33 975 0 20 4.0 0 0 0 0 0 5
	7837 7441 7837 6462 9724 6462 9724 7441 7837 7441
# polyline
2 1 0 0 0 0 973 0 20 4.0 0 0 0 0 0 6
	7879 7441 7879 7470 9754 7470 9754 6500 9724 6500 
	9724 7441
# polyline
2 1 0 1 0 0 971 0 -1 4.0 0 0 0 0 0 5
	7837 7441 7837 6462 9724 6462 9724 7441 7837 7441
# text
4 0 0 969 -1 18 14 0 4 249.683 499.367 8654 6645 dd\001
# polyline
2 1 0 1 0 0 968 0 -1 4.0 0 0 0 0 0 2
	7837 6708 9724 6708
# text
4 0 0 966 -1 18 14 0 4 249.683 1997.47 7920 6891 Entries \001
# text
4 0 0 964 -1 18 14 0 4 249.683 1498.1 8979 6891  35136\001
# text
4 0 0 962 -1 18 14 0 4 249.683 1498.1 7920 7137 Mean  \001
# text
4 0 0 960 -1 18 14 0 4 249.683 1747.78 8979 7137   843.8\001
# text
4 0 0 958 -1 18 14 0 4 249.683 1498.1 7920 7379 RMS   \001
# text
4 0 0 956 -1 18 14 0 4 249.683 1747.78 8979 7379   267.7\001
# polyline
2 1 0 1 0 0 955 0 -1 4.0 0 0 0 0 0 2
	1412 11954 8970 11954
# polyline
2 1 0 1 0 0 953 0 -1 4.0 0 0 0 0 0 2
	2187 11804 2187 11954
# polyline
2 1 0 1 0 0 952 0 -1 4.0 0 0 0 0 0 2
	2562 11879 2562 11954
# polyline
2 1 0 1 0 0 951 0 -1 4.0 0 0 0 0 0 2
	2941 11879 2941 11954
# polyline
2 1 0 1 0 0 950 0 -1 4.0 0 0 0 0 0 2
	3316 11879 3316 11954
# polyline
2 1 0 1 0 0 949 0 -1 4.0 0 0 0 0 0 2
	3691 11804 3691 11954
# polyline
2 1 0 1 0 0 948 0 -1 4.0 0 0 0 0 0 2
	4070 11879 4070 11954
# polyline
2 1 0 1 0 0 947 0 -1 4.0 0 0 0 0 0 2
	4445 11879 4445 11954
# polyline
2 1 0 1 0 0 946 0 -1 4.0 0 0 0 0 0 2
	4820 11879 4820 11954
# polyline
2 1 0 1 0 0 945 0 -1 4.0 0 0 0 0 0 2
	5199 11804 5199 11954
# polyline
2 1 0 1 0 0 944 0 -1 4.0 0 0 0 0 0 2
	5574 11879 5574 11954
# polyline
2 1 0 1 0 0 943 0 -1 4.0 0 0 0 0 0 2
	5949 11879 5949 11954
# polyline
2 1 0 1 0 0 942 0 -1 4.0 0 0 0 0 0 2
	6329 11879 6329 11954
# polyline
2 1 0 1 0 0 941 0 -1 4.0 0 0 0 0 0 2
	6704 11804 6704 11954
# polyline
2 1 0 1 0 0 940 0 -1 4.0 0 0 0 0 0 2
	7079 11879 7079 11954
# polyline
2 1 0 1 0 0 939 0 -1 4.0 0 0 0 0 0 2
	7458 11879 7458 11954
# polyline
2 1 0 1 0 0 938 0 -1 4.0 0 0 0 0 0 2
	7833 11879 7833 11954
# polyline
2 1 0 1 0 0 937 0 -1 4.0 0 0 0 0 0 2
	8208 11804 8208 11954
# polyline
2 1 0 1 0 0 936 0 -1 4.0 0 0 0 0 0 2
	2187 11804 2187 11954
# polyline
2 1 0 1 0 0 935 0 -1 4.0 0 0 0 0 0 2
	1812 11879 1812 11954
# polyline
2 1 0 1 0 0 934 0 -1 4.0 0 0 0 0 0 2
	1433 11879 1433 11954
# polyline
2 1 0 1 0 0 933 0 -1 4.0 0 0 0 0 0 2
	8208 11804 8208 11954
# polyline
2 1 0 1 0 0 932 0 -1 4.0 0 0 0 0 0 2
	8587 11879 8587 11954
# polyline
2 1 0 1 0 0 931 0 -1 4.0 0 0 0 0 0 2
	8962 11879 8962 11954
# text
4 0 0 929 -1 18 15 0 4 264.767 794.3 1987 12175 600\001
# text
4 0 0 928 -1 18 15 0 4 264.767 794.3 3495 12175 800\001
# text
4 0 0 927 -1 18 15 0 4 264.767 1059.07 4933 12175 1000\001
# text
4 0 0 926 -1 18 15 0 4 264.767 1059.07 6441 12175 1200\001
# text
4 0 0 925 -1 18 15 0 4 264.767 1059.07 7945 12175 1400\001
# polyline
2 1 0 1 0 0 924 0 -1 4.0 0 0 0 0 0 2
	1412 11954 1412 7045
# polyline
2 1 0 1 0 0 922 0 -1 4.0 0 0 0 0 0 2
	1637 11954 1412 11954
# polyline
2 1 0 1 0 0 921 0 -1 4.0 0 0 0 0 0 2
	1524 11825 1412 11825
# polyline
2 1 0 1 0 0 920 0 -1 4.0 0 0 0 0 0 2
	1524 11700 1412 11700
# polyline
2 1 0 1 0 0 919 0 -1 4.0 0 0 0 0 0 2
	1524 11570 1412 11570
# polyline
2 1 0 1 0 0 918 0 -1 4.0 0 0 0 0 0 2
	1637 11445 1412 11445
# polyline
2 1 0 1 0 0 917 0 -1 4.0 0 0 0 0 0 2
	1524 11316 1412 11316
# polyline
2 1 0 1 0 0 916 0 -1 4.0 0 0 0 0 0 2
	1524 11191 1412 11191
# polyline
2 1 0 1 0 0 915 0 -1 4.0 0 0 0 0 0 2
	1524 11062 1412 11062
# polyline
2 1 0 1 0 0 914 0 -1 4.0 0 0 0 0 0 2
	1637 10937 1412 10937
# polyline
2 1 0 1 0 0 913 0 -1 4.0 0 0 0 0 0 2
	1524 10808 1412 10808
# polyline
2 1 0 1 0 0 912 0 -1 4.0 0 0 0 0 0 2
	1524 10683 1412 10683
# polyline
2 1 0 1 0 0 911 0 -1 4.0 0 0 0 0 0 2
	1524 10554 1412 10554
# polyline
2 1 0 1 0 0 910 0 -1 4.0 0 0 0 0 0 2
	1637 10429 1412 10429
# polyline
2 1 0 1 0 0 909 0 -1 4.0 0 0 0 0 0 2
	1524 10300 1412 10300
# polyline
2 1 0 1 0 0 908 0 -1 4.0 0 0 0 0 0 2
	1524 10175 1412 10175
# polyline
2 1 0 1 0 0 907 0 -1 4.0 0 0 0 0 0 2
	1524 10045 1412 10045
# polyline
2 1 0 1 0 0 906 0 -1 4.0 0 0 0 0 0 2
	1637 9920 1412 9920
# polyline
2 1 0 1 0 0 905 0 -1 4.0 0 0 0 0 0 2
	1524 9791 1412 9791
# polyline
2 1 0 1 0 0 904 0 -1 4.0 0 0 0 0 0 2
	1524 9666 1412 9666
# polyline
2 1 0 1 0 0 903 0 -1 4.0 0 0 0 0 0 2
	1524 9537 1412 9537
# polyline
2 1 0 1 0 0 902 0 -1 4.0 0 0 0 0 0 2
	1637 9412 1412 9412
# polyline
2 1 0 1 0 0 901 0 -1 4.0 0 0 0 0 0 2
	1524 9283 1412 9283
# polyline
2 1 0 1 0 0 900 0 -1 4.0 0 0 0 0 0 2
	1524 9158 1412 9158
# polyline
2 1 0 1 0 0 899 0 -1 4.0 0 0 0 0 0 2
	1524 9029 1412 9029
# polyline
2 1 0 1 0 0 898 0 -1 4.0 0 0 0 0 0 2
	1637 8904 1412 8904
# polyline
2 1 0 1 0 0 897 0 -1 4.0 0 0 0 0 0 2
	1524 8775 1412 8775
# polyline
2 1 0 1 0 0 896 0 -1 4.0 0 0 0 0 0 2
	1524 8650 1412 8650
# polyline
2 1 0 1 0 0 895 0 -1 4.0 0 0 0 0 0 2
	1524 8520 1412 8520
# polyline
2 1 0 1 0 0 894 0 -1 4.0 0 0 0 0 0 2
	1637 8395 1412 8395
# polyline
2 1 0 1 0 0 893 0 -1 4.0 0 0 0 0 0 2
	1524 8266 1412 8266
# polyline
2 1 0 1 0 0 892 0 -1 4.0 0 0 0 0 0 2
	1524 8141 1412 8141
# polyline
2 1 0 1 0 0 891 0 -1 4.0 0 0 0 0 0 2
	1524 8016 1412 8016
# polyline
2 1 0 1 0 0 890 0 -1 4.0 0 0 0 0 0 2
	1637 7887 1412 7887
# polyline
2 1 0 1 0 0 889 0 -1 4.0 0 0 0 0 0 2
	1524 7762 1412 7762
# polyline
2 1 0 1 0 0 888 0 -1 4.0 0 0 0 0 0 2
	1524 7633 1412 7633
# polyline
2 1 0 1 0 0 887 0 -1 4.0 0 0 0 0 0 2
	1524 7508 1412 7508
# polyline
2 1 0 1 0 0 886 0 -1 4.0 0 0 0 0 0 2
	1637 7379 1412 7379
# polyline
2 1 0 1 0 0 885 0 -1 4.0 0 0 0 0 0 2
	1637 7379 1412 7379
# polyline
2 1 0 1 0 0 884 0 -1 4.0 0 0 0 0 0 2
	1524 7254 1412 7254
# polyline
2 1 0 1 0 0 883 0 -1 4.0 0 0 0 0 0 2
	1524 7125 1412 7125
# text
4 0 0 881 -1 18 15 0 4 264.767 264.767 1254 12025 0\001
# text
4 0 0 880 -1 18 15 0 4 264.767 529.533 1116 11520 20\001
# text
4 0 0 879 -1 18 15 0 4 264.767 529.533 1116 11004 40\001
# text
4 0 0 878 -1 18 15 0 4 264.767 529.533 1116 10504 60\001
# text
4 0 0 877 -1 18 15 0 4 264.767 529.533 1116 10000 80\001
# text
4 0 0 876 -1 18 15 0 4 264.767 794.3 983 9483 100\001
# text
4 0 0 875 -1 18 15 0 4 264.767 794.3 983 8983 120\001
# text
4 0 0 874 -1 18 15 0 4 264.767 794.3 983 8466 140\001
# text
4 0 0 873 -1 18 15 0 4 264.767 794.3 983 7962 160\001
# text
4 0 0 872 -1 18 15 0 4 264.767 794.3 983 7450 180\001
# polyline
2 1 0 0 33 33 871 0 20 4.0 0 0 0 0 0 5
	7837 7441 7837 6462 9724 6462 9724 7441 7837 7441
# polyline
2 1 0 0 0 0 869 0 20 4.0 0 0 0 0 0 6
	7879 7441 7879 7470 9754 7470 9754 6500 9724 6500 
	9724 7441
# polyline
2 1 0 1 0 0 867 0 -1 4.0 0 0 0 0 0 5
	7837 7441 7837 6462 9724 6462 9724 7441 7837 7441
# text
4 0 0 865 -1 18 14 0 4 249.683 499.367 8654 6645 dd\001
# polyline
2 1 0 1 0 0 864 0 -1 4.0 0 0 0 0 0 2
	7837 6708 9724 6708
# text
4 0 0 862 -1 18 14 0 4 249.683 1997.47 7920 6891 Entries \001
# text
4 0 0 860 -1 18 14 0 4 249.683 1498.1 8979 6891  35136\001
# text
4 0 0 858 -1 18 14 0 4 249.683 1498.1 7920 7137 Mean  \001
# text
4 0 0 856 -1 18 14 0 4 249.683 1747.78 8979 7137   843.8\001
# text
4 0 0 854 -1 18 14 0 4 249.683 1498.1 7920 7379 RMS   \001
# text
4 0 0 852 -1 18 14 0 4 249.683 1747.78 8979 7379   267.7\001
# polyline
2 1 0 0 33 33 851 0 20 4.0 0 0 0 0 0 5
	562 6737 562 6462 7174 6462 7174 6737 562 6737
# polyline
2 1 0 0 0 0 849 0 20 4.0 0 0 0 0 0 6
	599 6737 599 6766 7204 6766 7204 6500 7174 6500 
	7174 6737
# polyline
2 1 0 1 0 0 847 0 -1 4.0 0 0 0 0 0 5
	562 6737 562 6462 7174 6462 7174 6737 562 6737
# text
4 0 0 845 -1 18 2 0 4 38.502 2541.13 1024 6591 ge_en4*(1-0.396*cos(theta_g))/sqrt(1-0.396*0.396) {((cate_segment=\001
# text
4 0 0 843 -1 18 2 0 4 38.502 2233.12 1891 6591 =0 && Kr_poly_1)||(cate_segment==1 && Kr_poly_2)||(cate_se\001
# text
4 0 0 841 -1 18 2 0 4 38.502 2156.11 2687 6591 gment==2 && Kr_poly_3)||(cate_segment==3 && Kr_poly_4)||\001
# text
4 0 0 839 -1 18 2 0 4 38.502 2271.62 3472 6591 (cate_segment==4 && Kr_poly_5)||(cate_segment==5 && Kr_poly\001
# text
4 0 0 837 -1 18 2 0 4 38.502 2233.12 4311 6591 _6)||(cate_segment==6 && Kr_poly_7)||(cate_segment==7 && K\001
# text
4 0 0 835 -1 18 2 0 4 38.502 2156.11 5123 6591 r_poly_8)||(cate_segment==8 && Kr_poly_9))&&(theta_g>0  \001
# text
4 0 0 833 -1 18 2 0 4 38.502 1347.57 5891 6591 && ge_time>=4300 && ge_time<=4500)}\001
