#FIG 3.2
Landscape
Center
Metric
A4      
100.00
Single
-2
1200 2
4 0 1 50 -1 0 1 0.0000 4 60 3270 8467 3943 This is a long text with size 1 - it's purpose is to test if OpenOffice.org Draw displays it somewhat correctly, nothing more.\001
